8 Forecasting models. ARIMA | Gijón Air Pollution - An exercise of visualization and forecasting
…
paste(c("R-squared:", round(R_squared, 4), "MAE:", round(MAE, 2), "RMSE:", round(RMSE, 2)))

## [1] "R-squared:" "0.5327"     "MAE:"       "5.15"       "RMSE:"     
## [6] "7.45"

So, for the one hour ahead PM10 prediction if we take as prediction the previous PM10 hour level we would have a R-squared of 0.5327. So, the model is explaining 53% of the variability of the target variable.

Estimation of errors. We are going to use the MAE (Mean Absolute Error) in order to compare the different models. We choose the MAE over the RMSE (Root Mean Square Error) because it is easier to interpret and at the same time it is more robust (less sensitive to outliers). Either way, we are going to calculate the RMSE too, precisely because its sensitivity to outliers. It will give us useful information about the behaviour of each model.

We plot two lines with the predictions and the actual values. We have a problem of overplotting.

test_201701_201709_2 

## # A tibble: 6,551 x 2
##     PM10 date_time_utc      
##    <dbl> <dttm>             
##  1  46   2016-12-31 23:00:00
##  2  20.7 2017-01-01 00:00:00
##  3  38   2017-01-01 01:00:00
##  4  35   2017-01-01 02:00:00
##  5  36   2017-01-01 03:00:00
##  6  31   2017-01-01 04:00:00
##  7  22   2017-01-01 05:00:00
##  8  32   2017-01-01 06:00:00
##  9  21   2017-01-01 07:00:00
## 10  20   2017-01-01 08:00:00
## # ... with 6,541 more rows
…
